check the CS7 annotation of Epi,PriS and Amnion
…
temp.mk.list <-  temp.DM$sig %>% group_by(set) %>% filter(power >0.7) %>% top_n(25,power) 
temp.mk.list$set %>% table()

## .
##   Amnion Epiblast     PriS 
##       25       20       21

temp.mk.list

## Registered S3 method overwritten by 'cli':
##   method     from    
##   print.boxx spatstat

## # A tibble: 66 x 5
## # Groups:   set [3]
##    gene        n power set    NP   
##    <chr>   <int> <dbl> <chr>  <chr>
##  1 ANXA2       1 1     Amnion pos  
##  2 KRT19       1 1     Amnion pos  
##  3 CTSV        1 0.999 Amnion pos  
##  4 SLC2A3      1 0.999 Amnion pos  
##  5 ANXA3       1 0.997 Amnion pos  
##  6 CD99        1 0.996 Amnion pos  
##  7 EZR         1 0.996 Amnion pos  
##  8 ISL1        1 0.996 Amnion pos  
##  9 STOM        1 0.996 Amnion pos  
## 10 S100A11     1 0.991 Amnion pos  
## #  with 56 more rows
…
